<?xml version="1.0" encoding="UTF-8"?>
<glyph name="Cacute" format="1">
  <advance width="670"/>
  <unicode hex="0106"/>
  <outline>
    <component base="C"/>
    <component base="acutecomb.case" xOffset="328"/>
  </outline>
</glyph>
